{
  "rest-client.showHeaders": true,
  "rest-client.enable": true,
  "languageserver": {
    "golang": {
      "command": "gopls",
      "rootPatterns": ["go.mod", ".vim/", ".git/", ".hg/"],
      "filetypes": ["go"]
    }
  }
}
